{
  "service": "ЯНАО Тестирование компонентов",
  "serviceName": "ЯНАО Тестирование компонентов",
  "ordersLimit": 1,
  "orderBehaviourType": "ORDER_AND_DRAFT",
  "orderType": "ORDER",
  "screens": [
    {
      "id": "s1",
      "name": "s1 Приветствие",
      "type": "INFO",
      "header": "Компенсация затрат на строительство дома в ЯНАО",
      "subHeader": {
        "text": "",
        "clarifications": null
      },
      "isTerminal": false,
      "hideBackButton": false,
      "ignoreSmevSend": false,
      "forceDeliriumCall": null,
      "notSendToSp": false,
      "checkSendPermission": null,
      "needToUpdateAdditionalParameters": null,
      "isAccepted": null,
      "cssClass": null,
      "isFirstScreen": true,
      "isImpasse": false,
      "forceSendToSuggestions": null,
      "skipConditions": null,
      "preloadComponents": null,
      "cancelCalcStage": false,
      "changeStage": null,
      "changeStageWithDraft": null,
      "initStages": [],
      "infoComponents": [],
      "buttons": [
        {
          "id": "s1-0",
          "label": "Начать",
          "value": null,
          "type": "nextStep",
          "action": "getNextScreen",
          "color": "gosblue",
          "height": "",
          "deliriumAction": null,
          "attrs": null,
          "multipleAnswers": null,
          "queryParams": null
        }
      ],
      "attrs": null,
      "suggestion": null,
      "confirmations": null,
      "computedAnswers": null,
      "pronounceText": null,
      "pronounceTextType": null,
      "linkedValues": null,
      "components": [
        "c1"
      ],
      "logicComponents": null,
      "logicAfterValidationComponents": [],
      "afterOrderCreatedComponents": null
    },
    {
      "id": "s2",
      "name": "Экран s2",
      "type": "INFO",
      "header": null,
      "subHeader": null,
      "isTerminal": false,
      "hideBackButton": false,
      "ignoreSmevSend": false,
      "forceDeliriumCall": null,
      "notSendToSp": false,
      "checkSendPermission": null,
      "needToUpdateAdditionalParameters": null,
      "isAccepted": null,
      "cssClass": null,
      "isFirstScreen": false,
      "isImpasse": false,
      "forceSendToSuggestions": null,
      "skipConditions": null,
      "preloadComponents": null,
      "cancelCalcStage": false,
      "changeStage": null,
      "changeStageWithDraft": null,
      "initStages": [],
      "infoComponents": [],
      "buttons": [],
      "attrs": null,
      "suggestion": null,
      "confirmations": null,
      "computedAnswers": null,
      "pronounceText": null,
      "pronounceTextType": null,
      "linkedValues": null,
      "components": [],
      "logicComponents": [
        "c2"
      ],
      "logicAfterValidationComponents": [],
      "afterOrderCreatedComponents": null
    }
  ],
  "externalScreenIds": [],
  "applicationFields": [
    {
      "id": "c1",
      "name": "c1 - экран приветствия",
      "type": "InfoScr",
      "createOrder": false,
      "checkForDuplicate": false,
      "fieldsForCheck": null,
      "clearCacheForComponentIds": [],
      "label": "123\n123",
      "skipValidation": false,
      "attrs": {
        "hideSocialShare": false,
        "clarifications": {
          "ref-up2": {
            "title": "Как определяется нуждаемость",
            "text": "123"
          }
        }
      },
      "linkedValues": null,
      "arguments": {},
      "value": "",
      "required": true,
      "suggestionId": null,
      "analyticsTag": null,
      "sendAnalytics": false,
      "pronounceText": null,
      "pronounceTextType": null
    },
    {
      "id": "c2",
      "name": "Компонент c2",
      "type": "RestCall",
      "createOrder": false,
      "checkForDuplicate": false,
      "fieldsForCheck": null,
      "clearCacheForComponentIds": [],
      "label": null,
      "skipValidation": false,
      "attrs": {
        "method": "POST",
        "url": "",
        "path": ""
      },
      "linkedValues": null,
      "arguments": {},
      "value": null,
      "required": true,
      "suggestionId": null,
      "analyticsTag": null,
      "sendAnalytics": false,
      "pronounceText": null,
      "pronounceTextType": null
    }
  ],
  "initScreens": null,
  "stageRules": {},
  "screenRules": {
    "s1": [
      {
        "conditions": [],
        "nextDisplay": "s2"
      }
    ]
  },
  "cycledScreenRules": null,
  "overrideSubServiceComponents": null,
  "overrideSubServiceAttrs": [],
  "init": "s1",
  "draftTtl": 90,
  "orderTtl": null,
  "closedByCookie": false,
  "valueClosingCookie": null,
  "alwaysContinueScenario": false,
  "serviceIds": null,
  "targetIds": null,
  "smevEnv": null,
  "multipleOrders": true,
  "clarifications": null,
  "highloadParameters": null,
  "rateLimits": null,
  "statusTransformationRules": null,
  "transformation": null,
  "saveDraftsAtScreens": [],
  "suggestionRoles": null,
  "bookingInfo": null,
  "answerServicePrefix": null,
  "parameters": null,
  "availableOrderStatuses": [
    0,
    14,
    15,
    25,
    91,
    93,
    98
  ],
  "smevOrderStatuses": [],
  "sendToServiceTopic": false,
  "analyticsTags": [],
  "compareRegions": false,
  "acceptCookies": [],
  "version": null,
  "sentTimeFormat": null,
  "modalWindowOnError": {},
  "cancelCalcStage": false,
  "catalog": null,
  "spConfig": null
}